VVP_Output.txt
 @yashvardhan  iverilog -g2012 -o mips_sim mips2_tb.v mips2.v && vvp mips_sim

VCD info: dumpfile waves.vcd opened for output.
Time=0: PC=xxxxxxxx, Instr=xxxxxxxx
Time=5000: PC=00000000, Instr=00000000
Time=55000: PC=00000004, Instr=20100005
Time=65000: PC=00000008, Instr=00000000
Time=75000: PC=0000000c, Instr=00000000
Time=85000: PC=00000010, Instr=2011000a
Time=95000: PC=00000014, Instr=00000000
Time=105000: PC=00000018, Instr=00000000
Time=115000: PC=0000001c, Instr=00000000
Time=125000: PC=00000020, Instr=02304020
Time=135000: PC=00000024, Instr=00000000
Time=145000: PC=00000028, Instr=00000000
Time=155000: PC=0000002c, Instr=3212000f
Time=165000: PC=00000030, Instr=00000000
Time=175000: PC=00000034, Instr=00000000
Time=185000: PC=00000038, Instr=363300f0
Time=195000: PC=0000003c, Instr=00000000
Time=205000: PC=00000040, Instr=00000000
Time=215000: PC=00000044, Instr=2a34000a
Time=225000: PC=00000048, Instr=00000000
Time=235000: PC=0000004c, Instr=00000000
Time=245000: PC=00000050, Instr=ac080010
Time=255000: PC=00000054, Instr=00000000
Time=265000: PC=00000058, Instr=00000000
Time=275000: PC=0000005c, Instr=8c090010
Time=285000: PC=00000060, Instr=00000000
Time=295000: PC=00000064, Instr=00000000
Time=305000: PC=00000068, Instr=201600ff
Time=315000: PC=0000006c, Instr=00000000
Time=325000: PC=00000070, Instr=00000000
Time=335000: PC=00000074, Instr=00000000
Time=345000: PC=00000078, Instr=00000000
Time=355000: PC=0000007c, Instr=00000000
Time=365000: PC=00000080, Instr=00000000
Time=375000: PC=00000084, Instr=00000000
Time=385000: PC=00000088, Instr=00000000
Time=395000: PC=0000008c, Instr=00000000
Time=405000: PC=00000090, Instr=00000000
Time=415000: PC=00000094, Instr=00000000
Time=425000: PC=00000098, Instr=00000000
Time=435000: PC=0000009c, Instr=00000000
Time=445000: PC=000000a0, Instr=00000000
Time=455000: PC=000000a4, Instr=00000000
Time=465000: PC=000000a8, Instr=00000000
Time=475000: PC=000000ac, Instr=00000000
Time=485000: PC=000000b0, Instr=00000000
Time=495000: PC=000000b4, Instr=00000000
Time=505000: PC=000000b8, Instr=00000000
Time=515000: PC=000000bc, Instr=00000000
Time=525000: PC=000000c0, Instr=00000000
Time=535000: PC=000000c4, Instr=00000000
Time=545000: PC=000000c8, Instr=00000000
Time=555000: PC=000000cc, Instr=00000000
Time=565000: PC=000000d0, Instr=00000000
Time=575000: PC=000000d4, Instr=00000000
Time=585000: PC=000000d8, Instr=00000000
Time=595000: PC=000000dc, Instr=00000000
Time=605000: PC=000000e0, Instr=00000000
Time=615000: PC=000000e4, Instr=00000000
Time=625000: PC=000000e8, Instr=00000000
Time=635000: PC=000000ec, Instr=00000000
Time=645000: PC=000000f0, Instr=00000000
Time=655000: PC=000000f4, Instr=00000000
Time=665000: PC=000000f8, Instr=00000000
Time=675000: PC=000000fc, Instr=00000000
Time=685000: PC=00000100, Instr=00000000
Time=695000: PC=00000104, Instr=00000000
Time=705000: PC=00000108, Instr=00000000
Time=715000: PC=0000010c, Instr=00000000
Time=725000: PC=00000110, Instr=00000000
Time=735000: PC=00000114, Instr=00000000
Time=745000: PC=00000118, Instr=00000000
Time=755000: PC=0000011c, Instr=00000000
Time=765000: PC=00000120, Instr=00000000
Time=775000: PC=00000124, Instr=00000000
Time=785000: PC=00000128, Instr=00000000
Time=795000: PC=0000012c, Instr=00000000
Time=805000: PC=00000130, Instr=00000000
Time=815000: PC=00000134, Instr=00000000
Time=825000: PC=00000138, Instr=00000000
Time=835000: PC=0000013c, Instr=00000000
Time=845000: PC=00000140, Instr=00000000

Final Register/Memory State at ~350 ns:
$s0 =          5 (expected 5)
$s1 =         10 (expected 10)
$t0 =         15 (expected 15)
$s2 = 00000005 (expected 5)
$s3 = 000000fa (expected fa)
$s4 =          0 (expected 0)
$t1 =         15 (expected 15)
Mem[4] =         15 (expected 15)
$s6 = 000000ff (expected ff)
mips2_tb.v:94: $finish called at 850000 (1ps)
